\contentsline {chapter}{\numberline {1}Data Structure Index}{1}{chapter.1}
\contentsline {section}{\numberline {1.1}Data Structures}{1}{section.1.1}
\contentsline {chapter}{\numberline {2}File Index}{3}{chapter.2}
\contentsline {section}{\numberline {2.1}File List}{3}{section.2.1}
\contentsline {chapter}{\numberline {3}Data Structure Documentation}{5}{chapter.3}
\contentsline {section}{\numberline {3.1}Pa\discretionary {\unhbox \voidb@x \hbox {\relax \fontsize {7}{8}\selectfont $\leftarrow \joinrel \rhook $}}{}{}Test\discretionary {\unhbox \voidb@x \hbox {\relax \fontsize {7}{8}\selectfont $\leftarrow \joinrel \rhook $}}{}{}Data Struct Reference}{5}{section.3.1}
\contentsline {subsection}{\numberline {3.1.1}Detailed Description}{5}{subsection.3.1.1}
\contentsline {chapter}{\numberline {4}File Documentation}{7}{chapter.4}
\contentsline {section}{\numberline {4.1}src/callback.c File Reference}{7}{section.4.1}
\contentsline {subsection}{\numberline {4.1.1}Detailed Description}{8}{subsection.4.1.1}
\contentsline {subsection}{\numberline {4.1.2}Function Documentation}{8}{subsection.4.1.2}
\contentsline {subsubsection}{\numberline {4.1.2.1}stream\discretionary {\unhbox \voidb@x \hbox {\relax \fontsize {7}{8}\selectfont $\leftarrow \joinrel \rhook $}}{}{}Callback(const void $\ast $input, void $\ast $output, unsigned long frames\discretionary {\unhbox \voidb@x \hbox {\relax \fontsize {7}{8}\selectfont $\leftarrow \joinrel \rhook $}}{}{}Per\discretionary {\unhbox \voidb@x \hbox {\relax \fontsize {7}{8}\selectfont $\leftarrow \joinrel \rhook $}}{}{}Buffer, const Pa\discretionary {\unhbox \voidb@x \hbox {\relax \fontsize {7}{8}\selectfont $\leftarrow \joinrel \rhook $}}{}{}Stream\discretionary {\unhbox \voidb@x \hbox {\relax \fontsize {7}{8}\selectfont $\leftarrow \joinrel \rhook $}}{}{}Callback\discretionary {\unhbox \voidb@x \hbox {\relax \fontsize {7}{8}\selectfont $\leftarrow \joinrel \rhook $}}{}{}Time\discretionary {\unhbox \voidb@x \hbox {\relax \fontsize {7}{8}\selectfont $\leftarrow \joinrel \rhook $}}{}{}Info $\ast $time\discretionary {\unhbox \voidb@x \hbox {\relax \fontsize {7}{8}\selectfont $\leftarrow \joinrel \rhook $}}{}{}Info, Pa\discretionary {\unhbox \voidb@x \hbox {\relax \fontsize {7}{8}\selectfont $\leftarrow \joinrel \rhook $}}{}{}Stream\discretionary {\unhbox \voidb@x \hbox {\relax \fontsize {7}{8}\selectfont $\leftarrow \joinrel \rhook $}}{}{}Callback\discretionary {\unhbox \voidb@x \hbox {\relax \fontsize {7}{8}\selectfont $\leftarrow \joinrel \rhook $}}{}{}Flags status\discretionary {\unhbox \voidb@x \hbox {\relax \fontsize {7}{8}\selectfont $\leftarrow \joinrel \rhook $}}{}{}Flags, void $\ast $user\discretionary {\unhbox \voidb@x \hbox {\relax \fontsize {7}{8}\selectfont $\leftarrow \joinrel \rhook $}}{}{}Data)}{8}{subsubsection.4.1.2.1}
\contentsline {subsection}{\numberline {4.1.3}Variable Documentation}{9}{subsection.4.1.3}
\contentsline {subsubsection}{\numberline {4.1.3.1}data}{9}{subsubsection.4.1.3.1}
\contentsline {section}{\numberline {4.2}src/callback.h File Reference}{9}{section.4.2}
\contentsline {subsection}{\numberline {4.2.1}Detailed Description}{10}{subsection.4.2.1}
\contentsline {subsection}{\numberline {4.2.2}Function Documentation}{10}{subsection.4.2.2}
\contentsline {subsubsection}{\numberline {4.2.2.1}stream\discretionary {\unhbox \voidb@x \hbox {\relax \fontsize {7}{8}\selectfont $\leftarrow \joinrel \rhook $}}{}{}Callback(const void $\ast $input, void $\ast $output, unsigned long frames\discretionary {\unhbox \voidb@x \hbox {\relax \fontsize {7}{8}\selectfont $\leftarrow \joinrel \rhook $}}{}{}Per\discretionary {\unhbox \voidb@x \hbox {\relax \fontsize {7}{8}\selectfont $\leftarrow \joinrel \rhook $}}{}{}Buffer, const Pa\discretionary {\unhbox \voidb@x \hbox {\relax \fontsize {7}{8}\selectfont $\leftarrow \joinrel \rhook $}}{}{}Stream\discretionary {\unhbox \voidb@x \hbox {\relax \fontsize {7}{8}\selectfont $\leftarrow \joinrel \rhook $}}{}{}Callback\discretionary {\unhbox \voidb@x \hbox {\relax \fontsize {7}{8}\selectfont $\leftarrow \joinrel \rhook $}}{}{}Time\discretionary {\unhbox \voidb@x \hbox {\relax \fontsize {7}{8}\selectfont $\leftarrow \joinrel \rhook $}}{}{}Info $\ast $time\discretionary {\unhbox \voidb@x \hbox {\relax \fontsize {7}{8}\selectfont $\leftarrow \joinrel \rhook $}}{}{}Info, Pa\discretionary {\unhbox \voidb@x \hbox {\relax \fontsize {7}{8}\selectfont $\leftarrow \joinrel \rhook $}}{}{}Stream\discretionary {\unhbox \voidb@x \hbox {\relax \fontsize {7}{8}\selectfont $\leftarrow \joinrel \rhook $}}{}{}Callback\discretionary {\unhbox \voidb@x \hbox {\relax \fontsize {7}{8}\selectfont $\leftarrow \joinrel \rhook $}}{}{}Flags status\discretionary {\unhbox \voidb@x \hbox {\relax \fontsize {7}{8}\selectfont $\leftarrow \joinrel \rhook $}}{}{}Flags, void $\ast $user\discretionary {\unhbox \voidb@x \hbox {\relax \fontsize {7}{8}\selectfont $\leftarrow \joinrel \rhook $}}{}{}Data)}{10}{subsubsection.4.2.2.1}
\contentsline {section}{\numberline {4.3}src/main.c File Reference}{11}{section.4.3}
\contentsline {subsection}{\numberline {4.3.1}Detailed Description}{12}{subsection.4.3.1}
\contentsline {subsection}{\numberline {4.3.2}Function Documentation}{12}{subsection.4.3.2}
\contentsline {subsubsection}{\numberline {4.3.2.1}main(int argc, char $\ast $argv[])}{12}{subsubsection.4.3.2.1}
\contentsline {subsection}{\numberline {4.3.3}Variable Documentation}{13}{subsection.4.3.3}
\contentsline {subsubsection}{\numberline {4.3.3.1}data}{13}{subsubsection.4.3.3.1}
\contentsline {section}{\numberline {4.4}src/mainflows.c File Reference}{13}{section.4.4}
\contentsline {subsection}{\numberline {4.4.1}Detailed Description}{14}{subsection.4.4.1}
\contentsline {subsection}{\numberline {4.4.2}Function Documentation}{14}{subsection.4.4.2}
\contentsline {subsubsection}{\numberline {4.4.2.1}play\discretionary {\unhbox \voidb@x \hbox {\relax \fontsize {7}{8}\selectfont $\leftarrow \joinrel \rhook $}}{}{}From\discretionary {\unhbox \voidb@x \hbox {\relax \fontsize {7}{8}\selectfont $\leftarrow \joinrel \rhook $}}{}{}File(\discretionary {\unhbox \voidb@x \hbox {\relax \fontsize {7}{8}\selectfont $\leftarrow \joinrel \rhook $}}{}{}Pa\discretionary {\unhbox \voidb@x \hbox {\relax \fontsize {7}{8}\selectfont $\leftarrow \joinrel \rhook $}}{}{}Stream $\ast $stream, char $\ast $filename, double beat\discretionary {\unhbox \voidb@x \hbox {\relax \fontsize {7}{8}\selectfont $\leftarrow \joinrel \rhook $}}{}{}Duration)}{14}{subsubsection.4.4.2.1}
\contentsline {subsubsection}{\numberline {4.4.2.2}play\discretionary {\unhbox \voidb@x \hbox {\relax \fontsize {7}{8}\selectfont $\leftarrow \joinrel \rhook $}}{}{}From\discretionary {\unhbox \voidb@x \hbox {\relax \fontsize {7}{8}\selectfont $\leftarrow \joinrel \rhook $}}{}{}Std\discretionary {\unhbox \voidb@x \hbox {\relax \fontsize {7}{8}\selectfont $\leftarrow \joinrel \rhook $}}{}{}In(\discretionary {\unhbox \voidb@x \hbox {\relax \fontsize {7}{8}\selectfont $\leftarrow \joinrel \rhook $}}{}{}Pa\discretionary {\unhbox \voidb@x \hbox {\relax \fontsize {7}{8}\selectfont $\leftarrow \joinrel \rhook $}}{}{}Stream $\ast $stream, double beat\discretionary {\unhbox \voidb@x \hbox {\relax \fontsize {7}{8}\selectfont $\leftarrow \joinrel \rhook $}}{}{}Duration)}{15}{subsubsection.4.4.2.2}
\contentsline {subsection}{\numberline {4.4.3}Variable Documentation}{15}{subsection.4.4.3}
\contentsline {subsubsection}{\numberline {4.4.3.1}data}{15}{subsubsection.4.4.3.1}
\contentsline {section}{\numberline {4.5}src/mainflows.h File Reference}{16}{section.4.5}
\contentsline {subsection}{\numberline {4.5.1}Detailed Description}{16}{subsection.4.5.1}
\contentsline {subsection}{\numberline {4.5.2}Function Documentation}{16}{subsection.4.5.2}
\contentsline {subsubsection}{\numberline {4.5.2.1}play\discretionary {\unhbox \voidb@x \hbox {\relax \fontsize {7}{8}\selectfont $\leftarrow \joinrel \rhook $}}{}{}From\discretionary {\unhbox \voidb@x \hbox {\relax \fontsize {7}{8}\selectfont $\leftarrow \joinrel \rhook $}}{}{}File(\discretionary {\unhbox \voidb@x \hbox {\relax \fontsize {7}{8}\selectfont $\leftarrow \joinrel \rhook $}}{}{}Pa\discretionary {\unhbox \voidb@x \hbox {\relax \fontsize {7}{8}\selectfont $\leftarrow \joinrel \rhook $}}{}{}Stream $\ast $stream, char $\ast $filename, double beat\discretionary {\unhbox \voidb@x \hbox {\relax \fontsize {7}{8}\selectfont $\leftarrow \joinrel \rhook $}}{}{}Duration)}{16}{subsubsection.4.5.2.1}
\contentsline {subsubsection}{\numberline {4.5.2.2}play\discretionary {\unhbox \voidb@x \hbox {\relax \fontsize {7}{8}\selectfont $\leftarrow \joinrel \rhook $}}{}{}From\discretionary {\unhbox \voidb@x \hbox {\relax \fontsize {7}{8}\selectfont $\leftarrow \joinrel \rhook $}}{}{}Std\discretionary {\unhbox \voidb@x \hbox {\relax \fontsize {7}{8}\selectfont $\leftarrow \joinrel \rhook $}}{}{}In(\discretionary {\unhbox \voidb@x \hbox {\relax \fontsize {7}{8}\selectfont $\leftarrow \joinrel \rhook $}}{}{}Pa\discretionary {\unhbox \voidb@x \hbox {\relax \fontsize {7}{8}\selectfont $\leftarrow \joinrel \rhook $}}{}{}Stream $\ast $stream, double beat\discretionary {\unhbox \voidb@x \hbox {\relax \fontsize {7}{8}\selectfont $\leftarrow \joinrel \rhook $}}{}{}Duration)}{17}{subsubsection.4.5.2.2}
\contentsline {section}{\numberline {4.6}src/notes.h File Reference}{17}{section.4.6}
\contentsline {subsection}{\numberline {4.6.1}Detailed Description}{18}{subsection.4.6.1}
\contentsline {chapter}{Index}{21}{section*.21}
