\relax 
\providecommand\hyper@newdestlabel[2]{}
\providecommand\HyperFirstAtBeginDocument{\AtBeginDocument}
\HyperFirstAtBeginDocument{\ifx\hyper@anchor\@undefined
\global\let\oldcontentsline\contentsline
\gdef\contentsline#1#2#3#4{\oldcontentsline{#1}{#2}{#3}}
\global\let\oldnewlabel\newlabel
\gdef\newlabel#1#2{\newlabelxx{#1}#2}
\gdef\newlabelxx#1#2#3#4#5#6{\oldnewlabel{#1}{{#2}{#3}}}
\AtEndDocument{\ifx\hyper@anchor\@undefined
\let\contentsline\oldcontentsline
\let\newlabel\oldnewlabel
\fi}
\fi}
\global\let\hyper@last\relax 
\gdef\HyperFirstAtBeginDocument#1{#1}
\providecommand\HyField@AuxAddToFields[1]{}
\providecommand\HyField@AuxAddToCoFields[2]{}
\providecommand \oddpage@label [2]{}
\@writefile{toc}{\contentsline {chapter}{\numberline {1}Data Structure Index}{1}{chapter.1}}
\@writefile{lof}{\addvspace {10\p@ }}
\@writefile{lot}{\addvspace {10\p@ }}
\@writefile{toc}{\contentsline {section}{\numberline {1.1}Data Structures}{1}{section.1.1}}
\@writefile{toc}{\contentsline {chapter}{\numberline {2}File Index}{3}{chapter.2}}
\@writefile{lof}{\addvspace {10\p@ }}
\@writefile{lot}{\addvspace {10\p@ }}
\@writefile{toc}{\contentsline {section}{\numberline {2.1}File List}{3}{section.2.1}}
\@writefile{toc}{\contentsline {chapter}{\numberline {3}Data Structure Documentation}{5}{chapter.3}}
\@writefile{lof}{\addvspace {10\p@ }}
\@writefile{lot}{\addvspace {10\p@ }}
\@writefile{toc}{\contentsline {section}{\numberline {3.1}Pa\discretionary {\unhbox \voidb@x \hbox {\relax \fontsize  {7}{8}\selectfont  $\leftarrow \joinrel  \rhook $}}{}{}Test\discretionary {\unhbox \voidb@x \hbox {\relax \fontsize  {7}{8}\selectfont  $\leftarrow \joinrel  \rhook $}}{}{}Data Struct Reference}{5}{section.3.1}}
\newlabel{struct_pa_test_data}{{3.1}{5}{Pa\+Test\+Data Struct Reference}{section.3.1}{}}
\newlabel{struct_pa_test_data_a142a39cac3b023d358b4547a8b759760}{{3.1}{5}{Data Fields}{section*.2}{}}
\newlabel{struct_pa_test_data_a56f1d5294233a23464208730fc2ad912}{{3.1}{5}{Data Fields}{section*.2}{}}
\@writefile{toc}{\contentsline {subsection}{\numberline {3.1.1}Detailed Description}{5}{subsection.3.1.1}}
\@writefile{toc}{\contentsline {chapter}{\numberline {4}File Documentation}{7}{chapter.4}}
\@writefile{lof}{\addvspace {10\p@ }}
\@writefile{lot}{\addvspace {10\p@ }}
\@writefile{toc}{\contentsline {section}{\numberline {4.1}src/callback.c File Reference}{7}{section.4.1}}
\newlabel{callback_8c}{{4.1}{7}{src/callback.c File Reference}{section.4.1}{}}
\gdef \LT@i {\LT@entry 
    {3}{77.5088pt}\LT@entry 
    {3}{217.4607pt}}
\newlabel{callback_8c_a2e13cbaaba1951fdfe9e83d8b031e802}{{4.1}{8}{Variables}{section*.5}{}}
\@writefile{toc}{\contentsline {subsection}{\numberline {4.1.1}Detailed Description}{8}{subsection.4.1.1}}
\@writefile{toc}{\contentsline {subsection}{\numberline {4.1.2}Function Documentation}{8}{subsection.4.1.2}}
\@writefile{toc}{\contentsline {subsubsection}{\numberline {4.1.2.1}stream\discretionary {\unhbox \voidb@x \hbox {\relax \fontsize  {7}{8}\selectfont  $\leftarrow \joinrel  \rhook $}}{}{}Callback(const void $\ast $input, void $\ast $output, unsigned long frames\discretionary {\unhbox \voidb@x \hbox {\relax \fontsize  {7}{8}\selectfont  $\leftarrow \joinrel  \rhook $}}{}{}Per\discretionary {\unhbox \voidb@x \hbox {\relax \fontsize  {7}{8}\selectfont  $\leftarrow \joinrel  \rhook $}}{}{}Buffer, const Pa\discretionary {\unhbox \voidb@x \hbox {\relax \fontsize  {7}{8}\selectfont  $\leftarrow \joinrel  \rhook $}}{}{}Stream\discretionary {\unhbox \voidb@x \hbox {\relax \fontsize  {7}{8}\selectfont  $\leftarrow \joinrel  \rhook $}}{}{}Callback\discretionary {\unhbox \voidb@x \hbox {\relax \fontsize  {7}{8}\selectfont  $\leftarrow \joinrel  \rhook $}}{}{}Time\discretionary {\unhbox \voidb@x \hbox {\relax \fontsize  {7}{8}\selectfont  $\leftarrow \joinrel  \rhook $}}{}{}Info $\ast $time\discretionary {\unhbox \voidb@x \hbox {\relax \fontsize  {7}{8}\selectfont  $\leftarrow \joinrel  \rhook $}}{}{}Info, Pa\discretionary {\unhbox \voidb@x \hbox {\relax \fontsize  {7}{8}\selectfont  $\leftarrow \joinrel  \rhook $}}{}{}Stream\discretionary {\unhbox \voidb@x \hbox {\relax \fontsize  {7}{8}\selectfont  $\leftarrow \joinrel  \rhook $}}{}{}Callback\discretionary {\unhbox \voidb@x \hbox {\relax \fontsize  {7}{8}\selectfont  $\leftarrow \joinrel  \rhook $}}{}{}Flags status\discretionary {\unhbox \voidb@x \hbox {\relax \fontsize  {7}{8}\selectfont  $\leftarrow \joinrel  \rhook $}}{}{}Flags, void $\ast $user\discretionary {\unhbox \voidb@x \hbox {\relax \fontsize  {7}{8}\selectfont  $\leftarrow \joinrel  \rhook $}}{}{}Data)}{8}{subsubsection.4.1.2.1}}
\newlabel{callback_8c_a47186c7a42fd2c6f8a6693c0a9809325}{{4.1.2.1}{8}{\texorpdfstring {stream\+Callback(const void $\ast $input, void $\ast $output, unsigned long frames\+Per\+Buffer, const Pa\+Stream\+Callback\+Time\+Info $\ast $time\+Info, Pa\+Stream\+Callback\+Flags status\+Flags, void $\ast $user\+Data)}{streamCallback(const void *input, void *output, unsigned long framesPerBuffer, const PaStreamCallbackTimeInfo *timeInfo, PaStreamCallbackFlags statusFlags, void *userData)}}{subsubsection.4.1.2.1}{}}
\@writefile{toc}{\contentsline {subsection}{\numberline {4.1.3}Variable Documentation}{9}{subsection.4.1.3}}
\@writefile{toc}{\contentsline {subsubsection}{\numberline {4.1.3.1}data}{9}{subsubsection.4.1.3.1}}
\newlabel{callback_8c_ab9f1920dd32ed3415cba380dc4cb90a6}{{4.1.3.1}{9}{\texorpdfstring {data}{data}}{subsubsection.4.1.3.1}{}}
\@writefile{toc}{\contentsline {section}{\numberline {4.2}src/callback.h File Reference}{9}{section.4.2}}
\newlabel{callback_8h}{{4.2}{9}{src/callback.h File Reference}{section.4.2}{}}
\newlabel{callback_8h_a598a3330b3c21701223ee0ca14316eca}{{4.2}{10}{Macros}{section*.9}{}}
\newlabel{callback_8h_a4b76a0c2859cfd819a343a780070ee2b}{{4.2}{10}{Macros}{section*.9}{}}
\newlabel{callback_8h_ac271f2ecf44740ce9bc6f97396a74944}{{4.2}{10}{Macros}{section*.9}{}}
\@writefile{toc}{\contentsline {subsection}{\numberline {4.2.1}Detailed Description}{10}{subsection.4.2.1}}
\@writefile{toc}{\contentsline {subsection}{\numberline {4.2.2}Function Documentation}{10}{subsection.4.2.2}}
\@writefile{toc}{\contentsline {subsubsection}{\numberline {4.2.2.1}stream\discretionary {\unhbox \voidb@x \hbox {\relax \fontsize  {7}{8}\selectfont  $\leftarrow \joinrel  \rhook $}}{}{}Callback(const void $\ast $input, void $\ast $output, unsigned long frames\discretionary {\unhbox \voidb@x \hbox {\relax \fontsize  {7}{8}\selectfont  $\leftarrow \joinrel  \rhook $}}{}{}Per\discretionary {\unhbox \voidb@x \hbox {\relax \fontsize  {7}{8}\selectfont  $\leftarrow \joinrel  \rhook $}}{}{}Buffer, const Pa\discretionary {\unhbox \voidb@x \hbox {\relax \fontsize  {7}{8}\selectfont  $\leftarrow \joinrel  \rhook $}}{}{}Stream\discretionary {\unhbox \voidb@x \hbox {\relax \fontsize  {7}{8}\selectfont  $\leftarrow \joinrel  \rhook $}}{}{}Callback\discretionary {\unhbox \voidb@x \hbox {\relax \fontsize  {7}{8}\selectfont  $\leftarrow \joinrel  \rhook $}}{}{}Time\discretionary {\unhbox \voidb@x \hbox {\relax \fontsize  {7}{8}\selectfont  $\leftarrow \joinrel  \rhook $}}{}{}Info $\ast $time\discretionary {\unhbox \voidb@x \hbox {\relax \fontsize  {7}{8}\selectfont  $\leftarrow \joinrel  \rhook $}}{}{}Info, Pa\discretionary {\unhbox \voidb@x \hbox {\relax \fontsize  {7}{8}\selectfont  $\leftarrow \joinrel  \rhook $}}{}{}Stream\discretionary {\unhbox \voidb@x \hbox {\relax \fontsize  {7}{8}\selectfont  $\leftarrow \joinrel  \rhook $}}{}{}Callback\discretionary {\unhbox \voidb@x \hbox {\relax \fontsize  {7}{8}\selectfont  $\leftarrow \joinrel  \rhook $}}{}{}Flags status\discretionary {\unhbox \voidb@x \hbox {\relax \fontsize  {7}{8}\selectfont  $\leftarrow \joinrel  \rhook $}}{}{}Flags, void $\ast $user\discretionary {\unhbox \voidb@x \hbox {\relax \fontsize  {7}{8}\selectfont  $\leftarrow \joinrel  \rhook $}}{}{}Data)}{10}{subsubsection.4.2.2.1}}
\newlabel{callback_8h_a47186c7a42fd2c6f8a6693c0a9809325}{{4.2.2.1}{10}{\texorpdfstring {stream\+Callback(const void $\ast $input, void $\ast $output, unsigned long frames\+Per\+Buffer, const Pa\+Stream\+Callback\+Time\+Info $\ast $time\+Info, Pa\+Stream\+Callback\+Flags status\+Flags, void $\ast $user\+Data)}{streamCallback(const void *input, void *output, unsigned long framesPerBuffer, const PaStreamCallbackTimeInfo *timeInfo, PaStreamCallbackFlags statusFlags, void *userData)}}{subsubsection.4.2.2.1}{}}
\gdef \LT@ii {\LT@entry 
    {3}{77.5088pt}\LT@entry 
    {3}{217.4607pt}}
\@writefile{toc}{\contentsline {section}{\numberline {4.3}src/main.c File Reference}{11}{section.4.3}}
\newlabel{main_8c}{{4.3}{11}{src/main.c File Reference}{section.4.3}{}}
\gdef \LT@iii {\LT@entry 
    {3}{30.3047pt}\LT@entry 
    {3}{237.26958pt}}
\newlabel{main_8c_a2e13cbaaba1951fdfe9e83d8b031e802}{{4.3}{12}{Variables}{section*.13}{}}
\@writefile{toc}{\contentsline {subsection}{\numberline {4.3.1}Detailed Description}{12}{subsection.4.3.1}}
\@writefile{toc}{\contentsline {subsection}{\numberline {4.3.2}Function Documentation}{12}{subsection.4.3.2}}
\@writefile{toc}{\contentsline {subsubsection}{\numberline {4.3.2.1}main(int argc, char $\ast $argv[])}{12}{subsubsection.4.3.2.1}}
\newlabel{main_8c_a0ddf1224851353fc92bfbff6f499fa97}{{4.3.2.1}{12}{\texorpdfstring {main(int argc, char $\ast $argv[])}{main(int argc, char *argv[])}}{subsubsection.4.3.2.1}{}}
\@writefile{toc}{\contentsline {subsection}{\numberline {4.3.3}Variable Documentation}{13}{subsection.4.3.3}}
\@writefile{toc}{\contentsline {subsubsection}{\numberline {4.3.3.1}data}{13}{subsubsection.4.3.3.1}}
\newlabel{main_8c_ab9f1920dd32ed3415cba380dc4cb90a6}{{4.3.3.1}{13}{\texorpdfstring {data}{data}}{subsubsection.4.3.3.1}{}}
\@writefile{toc}{\contentsline {section}{\numberline {4.4}src/mainflows.c File Reference}{13}{section.4.4}}
\newlabel{mainflows_8c}{{4.4}{13}{src/mainflows.c File Reference}{section.4.4}{}}
\gdef \LT@iv {\LT@entry 
    {3}{64.23393pt}\LT@entry 
    {3}{143.1313pt}}
\newlabel{mainflows_8c_a2e13cbaaba1951fdfe9e83d8b031e802}{{4.4}{14}{Variables}{section*.16}{}}
\@writefile{toc}{\contentsline {subsection}{\numberline {4.4.1}Detailed Description}{14}{subsection.4.4.1}}
\@writefile{toc}{\contentsline {subsection}{\numberline {4.4.2}Function Documentation}{14}{subsection.4.4.2}}
\@writefile{toc}{\contentsline {subsubsection}{\numberline {4.4.2.1}play\discretionary {\unhbox \voidb@x \hbox {\relax \fontsize  {7}{8}\selectfont  $\leftarrow \joinrel  \rhook $}}{}{}From\discretionary {\unhbox \voidb@x \hbox {\relax \fontsize  {7}{8}\selectfont  $\leftarrow \joinrel  \rhook $}}{}{}File(\discretionary {\unhbox \voidb@x \hbox {\relax \fontsize  {7}{8}\selectfont  $\leftarrow \joinrel  \rhook $}}{}{}Pa\discretionary {\unhbox \voidb@x \hbox {\relax \fontsize  {7}{8}\selectfont  $\leftarrow \joinrel  \rhook $}}{}{}Stream $\ast $stream, char $\ast $filename, double beat\discretionary {\unhbox \voidb@x \hbox {\relax \fontsize  {7}{8}\selectfont  $\leftarrow \joinrel  \rhook $}}{}{}Duration)}{14}{subsubsection.4.4.2.1}}
\newlabel{mainflows_8c_a6ace10167659f1de8673c3740a1399bc}{{4.4.2.1}{14}{\texorpdfstring {play\+From\+File(\+Pa\+Stream $\ast $stream, char $\ast $filename, double beat\+Duration)}{playFromFile(PaStream *stream, char *filename, double beatDuration)}}{subsubsection.4.4.2.1}{}}
\gdef \LT@v {\LT@entry 
    {3}{64.23393pt}\LT@entry 
    {3}{148.63025pt}}
\@writefile{toc}{\contentsline {subsubsection}{\numberline {4.4.2.2}play\discretionary {\unhbox \voidb@x \hbox {\relax \fontsize  {7}{8}\selectfont  $\leftarrow \joinrel  \rhook $}}{}{}From\discretionary {\unhbox \voidb@x \hbox {\relax \fontsize  {7}{8}\selectfont  $\leftarrow \joinrel  \rhook $}}{}{}Std\discretionary {\unhbox \voidb@x \hbox {\relax \fontsize  {7}{8}\selectfont  $\leftarrow \joinrel  \rhook $}}{}{}In(\discretionary {\unhbox \voidb@x \hbox {\relax \fontsize  {7}{8}\selectfont  $\leftarrow \joinrel  \rhook $}}{}{}Pa\discretionary {\unhbox \voidb@x \hbox {\relax \fontsize  {7}{8}\selectfont  $\leftarrow \joinrel  \rhook $}}{}{}Stream $\ast $stream, double beat\discretionary {\unhbox \voidb@x \hbox {\relax \fontsize  {7}{8}\selectfont  $\leftarrow \joinrel  \rhook $}}{}{}Duration)}{15}{subsubsection.4.4.2.2}}
\newlabel{mainflows_8c_ad8daee20a4e44f9942f371739da39450}{{4.4.2.2}{15}{\texorpdfstring {play\+From\+Std\+In(\+Pa\+Stream $\ast $stream, double beat\+Duration)}{playFromStdIn(PaStream *stream, double beatDuration)}}{subsubsection.4.4.2.2}{}}
\@writefile{toc}{\contentsline {subsection}{\numberline {4.4.3}Variable Documentation}{15}{subsection.4.4.3}}
\@writefile{toc}{\contentsline {subsubsection}{\numberline {4.4.3.1}data}{15}{subsubsection.4.4.3.1}}
\newlabel{mainflows_8c_ab9f1920dd32ed3415cba380dc4cb90a6}{{4.4.3.1}{15}{\texorpdfstring {data}{data}}{subsubsection.4.4.3.1}{}}
\@writefile{toc}{\contentsline {section}{\numberline {4.5}src/mainflows.h File Reference}{16}{section.4.5}}
\newlabel{mainflows_8h}{{4.5}{16}{src/mainflows.h File Reference}{section.4.5}{}}
\@writefile{toc}{\contentsline {subsection}{\numberline {4.5.1}Detailed Description}{16}{subsection.4.5.1}}
\@writefile{toc}{\contentsline {subsection}{\numberline {4.5.2}Function Documentation}{16}{subsection.4.5.2}}
\@writefile{toc}{\contentsline {subsubsection}{\numberline {4.5.2.1}play\discretionary {\unhbox \voidb@x \hbox {\relax \fontsize  {7}{8}\selectfont  $\leftarrow \joinrel  \rhook $}}{}{}From\discretionary {\unhbox \voidb@x \hbox {\relax \fontsize  {7}{8}\selectfont  $\leftarrow \joinrel  \rhook $}}{}{}File(\discretionary {\unhbox \voidb@x \hbox {\relax \fontsize  {7}{8}\selectfont  $\leftarrow \joinrel  \rhook $}}{}{}Pa\discretionary {\unhbox \voidb@x \hbox {\relax \fontsize  {7}{8}\selectfont  $\leftarrow \joinrel  \rhook $}}{}{}Stream $\ast $stream, char $\ast $filename, double beat\discretionary {\unhbox \voidb@x \hbox {\relax \fontsize  {7}{8}\selectfont  $\leftarrow \joinrel  \rhook $}}{}{}Duration)}{16}{subsubsection.4.5.2.1}}
\newlabel{mainflows_8h_a6ace10167659f1de8673c3740a1399bc}{{4.5.2.1}{16}{\texorpdfstring {play\+From\+File(\+Pa\+Stream $\ast $stream, char $\ast $filename, double beat\+Duration)}{playFromFile(PaStream *stream, char *filename, double beatDuration)}}{subsubsection.4.5.2.1}{}}
\gdef \LT@vi {\LT@entry 
    {3}{64.23393pt}\LT@entry 
    {3}{143.1313pt}}
\gdef \LT@vii {\LT@entry 
    {3}{64.23393pt}\LT@entry 
    {3}{148.63025pt}}
\@writefile{toc}{\contentsline {subsubsection}{\numberline {4.5.2.2}play\discretionary {\unhbox \voidb@x \hbox {\relax \fontsize  {7}{8}\selectfont  $\leftarrow \joinrel  \rhook $}}{}{}From\discretionary {\unhbox \voidb@x \hbox {\relax \fontsize  {7}{8}\selectfont  $\leftarrow \joinrel  \rhook $}}{}{}Std\discretionary {\unhbox \voidb@x \hbox {\relax \fontsize  {7}{8}\selectfont  $\leftarrow \joinrel  \rhook $}}{}{}In(\discretionary {\unhbox \voidb@x \hbox {\relax \fontsize  {7}{8}\selectfont  $\leftarrow \joinrel  \rhook $}}{}{}Pa\discretionary {\unhbox \voidb@x \hbox {\relax \fontsize  {7}{8}\selectfont  $\leftarrow \joinrel  \rhook $}}{}{}Stream $\ast $stream, double beat\discretionary {\unhbox \voidb@x \hbox {\relax \fontsize  {7}{8}\selectfont  $\leftarrow \joinrel  \rhook $}}{}{}Duration)}{17}{subsubsection.4.5.2.2}}
\newlabel{mainflows_8h_ad8daee20a4e44f9942f371739da39450}{{4.5.2.2}{17}{\texorpdfstring {play\+From\+Std\+In(\+Pa\+Stream $\ast $stream, double beat\+Duration)}{playFromStdIn(PaStream *stream, double beatDuration)}}{subsubsection.4.5.2.2}{}}
\@writefile{toc}{\contentsline {section}{\numberline {4.6}src/notes.h File Reference}{17}{section.4.6}}
\newlabel{notes_8h}{{4.6}{17}{src/notes.h File Reference}{section.4.6}{}}
\newlabel{notes_8h_acc39015f57b2efb8810b603f188bdf15}{{4.6}{18}{Macros}{section*.20}{}}
\newlabel{notes_8h_a5e8cc881ce80d1d4d800ef0aa8a4dbe3}{{4.6}{18}{Macros}{section*.20}{}}
\newlabel{notes_8h_abb532b4ddcab81d4ea78e551952a3d23}{{4.6}{18}{Macros}{section*.20}{}}
\newlabel{notes_8h_a3d9bb178282c3cb69740c94ba1e48fed}{{4.6}{18}{Macros}{section*.20}{}}
\newlabel{notes_8h_a7da9abc97f010fbcc0ddc59d7d9e1017}{{4.6}{18}{Macros}{section*.20}{}}
\newlabel{notes_8h_a2b0567b8bbb3509d12272d07fd46c96c}{{4.6}{18}{Macros}{section*.20}{}}
\newlabel{notes_8h_a4c819074c856b4e67fad4875a92cb2e9}{{4.6}{18}{Macros}{section*.20}{}}
\newlabel{notes_8h_a7fd7918aa90b0ce1dc7ca9fe7a00e9fb}{{4.6}{18}{Macros}{section*.20}{}}
\newlabel{notes_8h_a6b1d4253d6494a13ab1aff2b66cbf860}{{4.6}{18}{Macros}{section*.20}{}}
\newlabel{notes_8h_a1635597f2416dc9fa04506a46d19a6d9}{{4.6}{18}{Macros}{section*.20}{}}
\newlabel{notes_8h_a6f984a8b01aafc34122cc8bc0d9d5691}{{4.6}{18}{Macros}{section*.20}{}}
\newlabel{notes_8h_ac703c119856d55f1bf521e6bb5c1a43a}{{4.6}{18}{Macros}{section*.20}{}}
\newlabel{notes_8h_a1db079a325e2bceb7db945b84f49547e}{{4.6}{18}{Macros}{section*.20}{}}
\newlabel{notes_8h_aa0a03ad95ca0cb887a11e321fa1c9519}{{4.6}{18}{Macros}{section*.20}{}}
\newlabel{notes_8h_a8a3845b79573efa93b9d1fbc15a89a3e}{{4.6}{18}{Macros}{section*.20}{}}
\newlabel{notes_8h_a8c4de9e3b19efa0bff7ced8db49df1e0}{{4.6}{18}{Macros}{section*.20}{}}
\newlabel{notes_8h_a0bf59f84e29fb57d27314583365a88d6}{{4.6}{18}{Macros}{section*.20}{}}
\@writefile{toc}{\contentsline {subsection}{\numberline {4.6.1}Detailed Description}{18}{subsection.4.6.1}}
\@writefile{toc}{\contentsline {chapter}{Index}{21}{section*.21}}
